applied-skills/Qartus/simulation/qsim/tarea1.msim.vcd
$comment
	File created using the following command:
		vcd file tarea1.msim.vcd -direction
$end
$date
	Thu Oct 06 15:28:31 2022
$end
$version
	ModelSim Version 2020.1
$end
$timescale
	1ps
$end

$scope module tarea1_vhd_vec_tst $end
$var wire 1 ! clk $end
$var wire 1 " Q [3] $end
$var wire 1 # Q [2] $end
$var wire 1 $ Q [1] $end
$var wire 1 % Q [0] $end
$var wire 1 & reset $end
$var wire 1 ' x $end

$scope module i1 $end
$var wire 1 ( gnd $end
$var wire 1 ) vcc $end
$var wire 1 * unknown $end
$var wire 1 + devoe $end
$var wire 1 , devclrn $end
$var wire 1 - devpor $end
$var wire 1 . ww_devoe $end
$var wire 1 / ww_devclrn $end
$var wire 1 0 ww_devpor $end
$var wire 1 1 ww_reset $end
$var wire 1 2 ww_clk $end
$var wire 1 3 ww_x $end
$var wire 1 4 ww_Q [3] $end
$var wire 1 5 ww_Q [2] $end
$var wire 1 6 ww_Q [1] $end
$var wire 1 7 ww_Q [0] $end
$var wire 1 8 \~QUARTUS_CREATED_GND~I_combout\ $end
$var wire 1 9 \clk~input_o\ $end
$var wire 1 : \clk~inputCLKENA0_outclk\ $end
$var wire 1 ; \contador[0]~0_combout\ $end
$var wire 1 < \reset~input_o\ $end
$var wire 1 = \x~input_o\ $end
$var wire 1 > \contador[0]~DUPLICATE_q\ $end
$var wire 1 ? \Add0~0_combout\ $end
$var wire 1 @ \Add0~1_combout\ $end
$var wire 1 A \Add0~2_combout\ $end
$var wire 1 B contador [3] $end
$var wire 1 C contador [2] $end
$var wire 1 D contador [1] $end
$var wire 1 E contador [0] $end
$var wire 1 F \ALT_INV_reset~input_o\ $end
$var wire 1 G \ALT_INV_x~input_o\ $end
$var wire 1 H \ALT_INV_contador[0]~DUPLICATE_q\ $end
$var wire 1 I ALT_INV_contador [3] $end
$var wire 1 J ALT_INV_contador [2] $end
$var wire 1 K ALT_INV_contador [1] $end
$var wire 1 L ALT_INV_contador [0] $end
$upscope $end
$upscope $end
$enddefinitions $end
#0
$dumpvars
0!
0&
1'
0(
1)
x*
1+
1,
1-
1.
1/
10
01
02
13
x8
09
0:
1;
0<
1=
0>
0?
0@
0A
1F
0G
1H
04
05
06
07
0B
0C
0D
0E
1I
1J
1K
1L
0"
0#
0$
0%
$end
#25000
1!
12
19
1:
1E
1>
0H
0L
0;
1?
17
1%
#50000
0!
02
09
0:
#75000
1!
12
19
1:
0E
0>
1D
0K
1H
1L
1;
16
07
0%
1$
#80000
1&
11
1<
0F
0D
1K
0?
06
0$
#100000
0!
02
09
0:
#125000
1!
12
19
1:
#150000
0!
02
09
0:
#175000
1!
12
19
1:
#200000
0!
02
09
0:
#225000
1!
12
19
1:
#250000
0!
02
09
0:
#260000
0&
01
0<
1F
#275000
1!
12
19
1:
1E
1>
0H
0L
0;
1?
17
1%
#300000
0!
02
09
0:
#325000
1!
12
19
1:
0E
0>
1D
0K
1H
1L
1;
16
07
0%
1$
#350000
0!
02
09
0:
#375000
1!
12
19
1:
1E
1>
0H
0L
0;
0?
1@
17
1%
#400000
0!
02
09
0:
#425000
1!
12
19
1:
0E
0>
0D
1C
0J
1K
1H
1L
1;
15
06
07
0%
0$
1#
#450000
0!
02
09
0:
#475000
1!
12
19
1:
1E
1>
0H
0L
0;
1?
17
1%
#500000
0!
02
09
0:
#525000
1!
12
19
1:
0E
0>
1D
0K
1H
1L
1;
16
07
0%
1$
#550000
0!
02
09
0:
#575000
1!
12
19
1:
1E
1>
0H
0L
0;
0?
0@
1A
17
1%
#600000
0!
02
09
0:
#625000
1!
12
19
1:
0E
0>
0D
0C
1B
0I
1J
1K
1H
1L
1;
14
05
06
07
0%
0$
0#
1"
#630000
0'
03
0=
1G
1?
1@
0A
#650000
0!
02
09
0:
#675000
1!
12
19
1:
1E
1>
1D
1C
0B
1I
0J
0K
0H
0L
0;
04
15
16
17
1%
1$
1#
0"
#700000
0!
02
09
0:
#725000
1!
12
19
1:
0E
0>
1H
1L
1;
0?
07
0%
#750000
0!
02
09
0:
#775000
1!
12
19
1:
1E
1>
0D
1K
0H
0L
0;
06
17
1%
0$
#800000
0!
02
09
0:
#825000
1!
12
19
1:
0E
0>
1H
1L
1;
1?
0@
07
0%
#850000
0!
02
09
0:
#875000
1!
12
19
1:
1E
1>
1D
0C
1J
0K
0H
0L
0;
05
16
17
1%
1$
0#
#890000
1'
13
1=
0G
0?
1@
#900000
0!
02
09
0:
#925000
1!
12
19
1:
0E
0>
0D
1C
0J
1K
1H
1L
1;
15
06
07
0%
0$
1#
#950000
0!
02
09
0:
#975000
1!
12
19
1:
1E
1>
0H
0L
0;
1?
17
1%
